32033 273845 443
124069 331071 443
888146 460561 525
933511 115531 525
679186 90288 509
993270 962986 458
346369 605583 470
344888 548024 470
475403 783134 509
803485 25390 509
534795 104306 470
122088 6955 354
234641 870888 525
96238 325879 443
443224 351001 449
29730 952138 525
902843 941885 507
825779 355207 509
579339 132892 470
196567 951138 525
347112 362220 410
553349 155080 470
118633 475 354
868565 832856 525
922223 625911 525
846950 540747 525
731648 254942 509
717577 154963 509
567186 659711 509
901737 249895 525
921563 167004 525
620489 378633 470
556763 254257 470
885814 937383 476
122709 801878 509
797796 529068 509
423942 412286 418
295089 571036 470
366780 326444 441
834709 941889 525
907250 845681 445
627584 764170 504
911147 613173 525
287280 592460 470
934347 839447 476
383525 182441 443
263940 985305 525
993332 978415 427
623760 722118 509
69871 846059 525
625104 900209 525
553815 783135 509
710736 93042 509
585454 903748 525
271549 949230 525
326193 800544 509
661283 671859 442
510527 31046 449
524261 714873 509
21141 730968 509
376936 151082 443
503743 94346 449
116100 835323 509
105516 863787 525
932090 12614 525
274235 746320 509
894511 508612 525
949493 674981 525
945357 728490 525
580299 664308 509
878344 121401 525
672611 357267 509
583836 371202 470
417710 670332 509
280193 536556 470
712646 740016 424
5381 79707 351
993666 342984 525
410014 274388 449
282171 404454 441
462605 50484 449
244286 735165 509
74120 524836 470
283159 528845 470
147311 720639 509
5339 115257 354
382858 995450 525
480835 591216 470
472457 603404 470
151016 336094 443
276990 855450 525
681084 588998 509
698341 713913 504
15932 611751 470
664747 782571 504
439655 742824 509
829137 371069 509
54375 40231 340
223113 563769 470
191428 870944 525
799480 297629 509
883196 685606 525
208489 45290 383
669713 451385 509
477758 21501 449
85502 616818 470
301746 327776 384
724758 567582 509
677092 79530 509
115744 868746 525
59496 891237 525
450597 97508 449
355366 10481 443
505986 962837 525
711144 288124 509
152218 622262 470
493745 423946 444
226767 872894 525
31942 392725 443
321097 356906 441
336682 218736 443
264060 658907 509
970825 639476 525
435787 155052 449
423277 62411 449
619917 42650 470
789843 914776 525
311791 616246 470
682111 209596 509
323811 978028 525
117807 151868 375
303253 754951 509
282024 51612 443
520462 303313 470
260474 920023 525
789140 917526 525
942993 529650 525
331019 311431 384
943019 833769 525
941823 271404 525
470842 835035 509
162265 582877 470
197737 791826 509
789756 18948 509
414094 82717 449
673670 360245 509
956572 180369 525
821158 126346 509
4684 372493 443
15101 436941 449
787844 471105 509
227480 971868 525
305344 202921 443
406497 399485 405
943931 494052 525
463487 83611 449
158925 845506 525
350556 30748 443
188664 651632 509
975686 631948 525
906082 952556 507
708020 570588 509
90928 434657 449
409181 460103 449
909240 422210 525
501786 798072 509
815545 173501 509
570884 580336 390
66894 46738 340
447505 308789 449
373715 542000 470
536164 225579 470
685384 11807 509
266462 832508 509
616226 877413 525
793407 525247 509
918548 917828 339
890875 154174 525
165548 752991 509
916392 372347 525
798951 212300 509
541728 91186 470
865757 385281 525
929174 187351 525
856032 197381 525
10877 227113 386
495879 512599 470
173451 6366 383
308161 838825 525
945453 478582 525
765274 860688 525
470497 849090 525
455079 485167 444
74917 466148 449
716712 911800 525
313981 544940 470
947065 812729 525
638413 987829 525
76041 13112 340
154914 894973 525
52873 752982 509
309577 192999 443
409538 837281 509
414479 248813 449
53675 887533 525
690813 117006 509
590603 121269 470
399602 472062 449
926469 650294 525
284299 662241 509
480887 657798 509
197997 169226 365
332746 152359 443
891189 889258 370
925352 582752 525
30652 875833 525
15102 487090 449
732004 285887 509
345423 99070 443
182981 674542 509
44909 495333 449
921683 236862 525
416946 306936 449
261864 767557 509
132866 688768 509
706749 804096 468
706537 35933 509
112944 146057 375
405849 664171 509
925547 169401 525
762350 772633 468
974547 558972 525
739267 743907 393
399096 623671 470
414314 392983 449
918786 204693 525
688288 990781 525
924248 491556 525
608186 704518 509
480453 517465 470
332983 140601 443
916216 590885 525
274636 291510 389
813012 988429 525
863155 366209 525
370089 632317 509
743164 783427 468
575521 128485 470
962404 466224 525
740349 724148 424
